\contentsline {section}{\numberline {1}Le problème théorique}{3}{section.1}%
\contentsline {section}{\numberline {2}Représentation Java}{3}{section.2}%
\contentsline {section}{\numberline {3}KPI}{3}{section.3}%
\contentsline {section}{\numberline {4}Méthodes de résolution}{3}{section.4}%
\contentsline {section}{\numberline {5}Résultats}{3}{section.5}%
\contentsline {section}{\numberline {6}Conclusion}{3}{section.6}%
