\relax 
\providecommand\hyper@newdestlabel[2]{}
\providecommand\HyperFirstAtBeginDocument{\AtBeginDocument}
\HyperFirstAtBeginDocument{\ifx\hyper@anchor\@undefined
\global\let\oldcontentsline\contentsline
\gdef\contentsline#1#2#3#4{\oldcontentsline{#1}{#2}{#3}}
\global\let\oldnewlabel\newlabel
\gdef\newlabel#1#2{\newlabelxx{#1}#2}
\gdef\newlabelxx#1#2#3#4#5#6{\oldnewlabel{#1}{{#2}{#3}}}
\AtEndDocument{\ifx\hyper@anchor\@undefined
\let\contentsline\oldcontentsline
\let\newlabel\oldnewlabel
\fi}
\fi}
\global\let\hyper@last\relax 
\gdef\HyperFirstAtBeginDocument#1{#1}
\providecommand\HyField@AuxAddToFields[1]{}
\providecommand\HyField@AuxAddToCoFields[2]{}
\providecommand \oddpage@label [2]{}
\csname auxWARNINGi\endcsname {\typeout {-34- this file and other auxiliary files require to use the following}}
\csname auxWARNINGi\endcsname {\typeout {-34- LaTeX packages: e-french!}}
\csname auxWARNINGi\endcsname {\typeout {-34- check \protect \usepackage \space or remove these files. Typesetting is aborted!}\stop }
\newlabel{LastPage}{{}{2}{}{page.2}{}}
\xdef\lastpage@lastpage{2}
\xdef\lastpage@lastpageHy{2}
\@writefile{toc}{\contentsline {section}{\numberline {1}Le problème théorique}{3}{section.1}\protected@file@percent }
\@writefile{toc}{\contentsline {section}{\numberline {2}Représentation Java}{3}{section.2}\protected@file@percent }
\@writefile{toc}{\contentsline {section}{\numberline {3}KPI}{3}{section.3}\protected@file@percent }
\@writefile{toc}{\contentsline {section}{\numberline {4}Méthodes de résolution}{3}{section.4}\protected@file@percent }
\@writefile{toc}{\contentsline {section}{\numberline {5}Résultats}{3}{section.5}\protected@file@percent }
\@writefile{toc}{\contentsline {section}{\numberline {6}Conclusion}{3}{section.6}\protected@file@percent }
\gdef \@abspage@last{3}
