{
  "jobs" : [ {
    "id" : 0,
    "loc" : {
      "id" : 0,
      "coordx" : 43.756645,
      "coordy" : 3.982398
    },
    "abL" : [ {
      "level" : 1,
      "skill" : "ADMINISTRATIO_THERAPEUTIQUE"
    } ],
    "horairenec" : {
      "beg" : 1639020773.000000000,
      "end" : 1639023251.000000000
    },
    "horairevoulu" : {
      "beg" : 1639020773.000000000,
      "end" : 1639023251.000000000
    },
    "duree" : 2505
  }, {
    "id" : 1,
    "loc" : {
      "id" : 1,
      "coordx" : 43.635384,
      "coordy" : 3.6238997
    },
    "abL" : [ {
      "level" : 4,
      "skill" : "URGENCE"
    } ],
    "horairenec" : {
      "beg" : 1639023338.000000000,
      "end" : 1639026846.000000000
    },
    "horairevoulu" : {
      "beg" : 1639023338.000000000,
      "end" : 1639026846.000000000
    },
    "duree" : 2677
  }, {
    "id" : 2,
    "loc" : {
      "id" : 2,
      "coordx" : 43.89435,
      "coordy" : 3.9517064
    },
    "abL" : [ {
      "level" : 5,
      "skill" : "TRANSMISSION"
    } ],
    "horairenec" : {
      "beg" : 1639017415.000000000,
      "end" : 1639020067.000000000
    },
    "horairevoulu" : {
      "beg" : 1639017415.000000000,
      "end" : 1639020067.000000000
    },
    "duree" : 2401
  }, {
    "id" : 3,
    "loc" : {
      "id" : 3,
      "coordx" : 43.834435,
      "coordy" : 3.5287857
    },
    "abL" : [ {
      "level" : 5,
      "skill" : "URGENCE"
    } ],
    "horairenec" : {
      "beg" : 1639020773.000000000,
      "end" : 1639023116.000000000
    },
    "horairevoulu" : {
      "beg" : 1639020773.000000000,
      "end" : 1639023116.000000000
    },
    "duree" : 2548
  }, {
    "id" : 4,
    "loc" : {
      "id" : 4,
      "coordx" : 43.901287,
      "coordy" : 3.6108973
    },
    "abL" : [ {
      "level" : 1,
      "skill" : "PREVENTION"
    } ],
    "horairenec" : {
      "beg" : 1639022640.000000000,
      "end" : 1639024832.000000000
    },
    "horairevoulu" : {
      "beg" : 1639022640.000000000,
      "end" : 1639024832.000000000
    },
    "duree" : 2145
  }, {
    "id" : 5,
    "loc" : {
      "id" : 5,
      "coordx" : 43.574154,
      "coordy" : 3.860094
    },
    "abL" : [ {
      "level" : 5,
      "skill" : "ENCADREMENT_STAGIAIRE"
    } ],
    "horairenec" : {
      "beg" : 1639018604.000000000,
      "end" : 1639021592.000000000
    },
    "horairevoulu" : {
      "beg" : 1639018604.000000000,
      "end" : 1639021592.000000000
    },
    "duree" : 2302
  }, {
    "id" : 6,
    "loc" : {
      "id" : 6,
      "coordx" : 43.624744,
      "coordy" : 3.978791
    },
    "abL" : [ {
      "level" : 4,
      "skill" : "URGENCE"
    } ],
    "horairenec" : {
      "beg" : 1639028510.000000000,
      "end" : 1639031836.000000000
    },
    "horairevoulu" : {
      "beg" : 1639028510.000000000,
      "end" : 1639031836.000000000
    },
    "duree" : 2211
  }, {
    "id" : 7,
    "loc" : {
      "id" : 7,
      "coordx" : 43.607285,
      "coordy" : 3.5759935
    },
    "abL" : [ {
      "level" : 3,
      "skill" : "ORGANISATION"
    } ],
    "horairenec" : {
      "beg" : 1639014946.000000000,
      "end" : 1639017309.000000000
    },
    "horairevoulu" : {
      "beg" : 1639014946.000000000,
      "end" : 1639017309.000000000
    },
    "duree" : 2545
  }, {
    "id" : 8,
    "loc" : {
      "id" : 8,
      "coordx" : 43.754807,
      "coordy" : 4.026133
    },
    "abL" : [ {
      "level" : 5,
      "skill" : "PREMIER_SECOURS"
    } ],
    "horairenec" : {
      "beg" : 1639019916.000000000,
      "end" : 1639022128.000000000
    },
    "horairevoulu" : {
      "beg" : 1639019916.000000000,
      "end" : 1639022128.000000000
    },
    "duree" : 2292
  }, {
    "id" : 9,
    "loc" : {
      "id" : 9,
      "coordx" : 43.701633,
      "coordy" : 3.5988162
    },
    "abL" : [ {
      "level" : 3,
      "skill" : "URGENCE"
    } ],
    "horairenec" : {
      "beg" : 1639011033.000000000,
      "end" : 1639013341.000000000
    },
    "horairevoulu" : {
      "beg" : 1639011033.000000000,
      "end" : 1639013341.000000000
    },
    "duree" : 3461
  }, {
    "id" : 10,
    "loc" : {
      "id" : 10,
      "coordx" : 43.757843,
      "coordy" : 3.9035044
    },
    "abL" : [ {
      "level" : 5,
      "skill" : "ADMINISTRATIO_THERAPEUTIQUE"
    } ],
    "horairenec" : {
      "beg" : 1639022926.000000000,
      "end" : 1639025873.000000000
    },
    "horairevoulu" : {
      "beg" : 1639022926.000000000,
      "end" : 1639025873.000000000
    },
    "duree" : 3587
  }, {
    "id" : 11,
    "loc" : {
      "id" : 11,
      "coordx" : 43.88312,
      "coordy" : 3.7644317
    },
    "abL" : [ {
      "level" : 2,
      "skill" : "URGENCE"
    } ],
    "horairenec" : {
      "beg" : 1639010321.000000000,
      "end" : 1639013158.000000000
    },
    "horairevoulu" : {
      "beg" : 1639010321.000000000,
      "end" : 1639013158.000000000
    },
    "duree" : 3213
  }, {
    "id" : 12,
    "loc" : {
      "id" : 12,
      "coordx" : 43.70079,
      "coordy" : 4.061875
    },
    "abL" : [ {
      "level" : 4,
      "skill" : "PREVENTION"
    } ],
    "horairenec" : {
      "beg" : 1639021355.000000000,
      "end" : 1639023549.000000000
    },
    "horairevoulu" : {
      "beg" : 1639021355.000000000,
      "end" : 1639023549.000000000
    },
    "duree" : 3549
  }, {
    "id" : 13,
    "loc" : {
      "id" : 13,
      "coordx" : 43.86543,
      "coordy" : 3.5763295
    },
    "abL" : [ {
      "level" : 4,
      "skill" : "PREVENTION"
    } ],
    "horairenec" : {
      "beg" : 1639012367.000000000,
      "end" : 1639015022.000000000
    },
    "horairevoulu" : {
      "beg" : 1639012367.000000000,
      "end" : 1639015022.000000000
    },
    "duree" : 2576
  }, {
    "id" : 14,
    "loc" : {
      "id" : 14,
      "coordx" : 43.661247,
      "coordy" : 3.5142574
    },
    "abL" : [ {
      "level" : 5,
      "skill" : "PREMIER_SECOURS"
    } ],
    "horairenec" : {
      "beg" : 1639022309.000000000,
      "end" : 1639024925.000000000
    },
    "horairevoulu" : {
      "beg" : 1639022309.000000000,
      "end" : 1639024925.000000000
    },
    "duree" : 3446
  }, {
    "id" : 15,
    "loc" : {
      "id" : 15,
      "coordx" : 43.71519,
      "coordy" : 3.7473223
    },
    "abL" : [ {
      "level" : 2,
      "skill" : "ORGANISATION"
    } ],
    "horairenec" : {
      "beg" : 1639009659.000000000,
      "end" : 1639012394.000000000
    },
    "horairevoulu" : {
      "beg" : 1639009659.000000000,
      "end" : 1639012394.000000000
    },
    "duree" : 1912
  }, {
    "id" : 16,
    "loc" : {
      "id" : 16,
      "coordx" : 43.700294,
      "coordy" : 4.0070724
    },
    "abL" : [ {
      "level" : 1,
      "skill" : "ORGANISATION"
    } ],
    "horairenec" : {
      "beg" : 1639022127.000000000,
      "end" : 1639025430.000000000
    },
    "horairevoulu" : {
      "beg" : 1639022127.000000000,
      "end" : 1639025430.000000000
    },
    "duree" : 2233
  }, {
    "id" : 17,
    "loc" : {
      "id" : 17,
      "coordx" : 43.866413,
      "coordy" : 3.652564
    },
    "abL" : [ {
      "level" : 5,
      "skill" : "HYGIENE"
    } ],
    "horairenec" : {
      "beg" : 1639029856.000000000,
      "end" : 1639033029.000000000
    },
    "horairevoulu" : {
      "beg" : 1639029856.000000000,
      "end" : 1639033029.000000000
    },
    "duree" : 2372
  }, {
    "id" : 18,
    "loc" : {
      "id" : 18,
      "coordx" : 43.591022,
      "coordy" : 4.0808825
    },
    "abL" : [ {
      "level" : 3,
      "skill" : "HYGIENE"
    } ],
    "horairenec" : {
      "beg" : 1639027560.000000000,
      "end" : 1639030453.000000000
    },
    "horairevoulu" : {
      "beg" : 1639027560.000000000,
      "end" : 1639030453.000000000
    },
    "duree" : 2223
  }, {
    "id" : 19,
    "loc" : {
      "id" : 19,
      "coordx" : 43.714016,
      "coordy" : 3.9131618
    },
    "abL" : [ {
      "level" : 5,
      "skill" : "PREMIER_SECOURS"
    } ],
    "horairenec" : {
      "beg" : 1639031944.000000000,
      "end" : 1639034932.000000000
    },
    "horairevoulu" : {
      "beg" : 1639031944.000000000,
      "end" : 1639034932.000000000
    },
    "duree" : 2391
  }, {
    "id" : 20,
    "loc" : {
      "id" : 20,
      "coordx" : 43.65136,
      "coordy" : 3.6946814
    },
    "abL" : [ {
      "level" : 2,
      "skill" : "PREVENTION"
    } ],
    "horairenec" : {
      "beg" : 1639025874.000000000,
      "end" : 1639027929.000000000
    },
    "horairevoulu" : {
      "beg" : 1639025874.000000000,
      "end" : 1639027929.000000000
    },
    "duree" : 2544
  }, {
    "id" : 21,
    "loc" : {
      "id" : 21,
      "coordx" : 43.74366,
      "coordy" : 3.7664838
    },
    "abL" : [ {
      "level" : 2,
      "skill" : "PREVENTION"
    } ],
    "horairenec" : {
      "beg" : 1639023685.000000000,
      "end" : 1639026581.000000000
    },
    "horairevoulu" : {
      "beg" : 1639023685.000000000,
      "end" : 1639026581.000000000
    },
    "duree" : 3246
  }, {
    "id" : 22,
    "loc" : {
      "id" : 22,
      "coordx" : 43.725906,
      "coordy" : 3.901106
    },
    "abL" : [ {
      "level" : 1,
      "skill" : "HYGIENE"
    } ],
    "horairenec" : {
      "beg" : 1639030136.000000000,
      "end" : 1639033623.000000000
    },
    "horairevoulu" : {
      "beg" : 1639030136.000000000,
      "end" : 1639033623.000000000
    },
    "duree" : 1833
  }, {
    "id" : 23,
    "loc" : {
      "id" : 23,
      "coordx" : 43.717175,
      "coordy" : 3.759508
    },
    "abL" : [ {
      "level" : 5,
      "skill" : "AIDE_DIAGNOSTIQUE"
    } ],
    "horairenec" : {
      "beg" : 1639014817.000000000,
      "end" : 1639017440.000000000
    },
    "horairevoulu" : {
      "beg" : 1639014817.000000000,
      "end" : 1639017440.000000000
    },
    "duree" : 2958
  }, {
    "id" : 24,
    "loc" : {
      "id" : 24,
      "coordx" : 43.74632,
      "coordy" : 3.5326536
    },
    "abL" : [ {
      "level" : 3,
      "skill" : "ENCADREMENT_STAGIAIRE"
    } ],
    "horairenec" : {
      "beg" : 1639010535.000000000,
      "end" : 1639012662.000000000
    },
    "horairevoulu" : {
      "beg" : 1639010535.000000000,
      "end" : 1639012662.000000000
    },
    "duree" : 3491
  }, {
    "id" : 25,
    "loc" : {
      "id" : 25,
      "coordx" : 43.792107,
      "coordy" : 3.8626108
    },
    "abL" : [ {
      "level" : 2,
      "skill" : "PREMIER_SECOURS"
    } ],
    "horairenec" : {
      "beg" : 1639025524.000000000,
      "end" : 1639028643.000000000
    },
    "horairevoulu" : {
      "beg" : 1639025524.000000000,
      "end" : 1639028643.000000000
    },
    "duree" : 2466
  }, {
    "id" : 26,
    "loc" : {
      "id" : 26,
      "coordx" : 43.64067,
      "coordy" : 3.6479247
    },
    "abL" : [ {
      "level" : 2,
      "skill" : "TRANSMISSION"
    } ],
    "horairenec" : {
      "beg" : 1639015480.000000000,
      "end" : 1639017924.000000000
    },
    "horairevoulu" : {
      "beg" : 1639015480.000000000,
      "end" : 1639017924.000000000
    },
    "duree" : 3344
  }, {
    "id" : 27,
    "loc" : {
      "id" : 27,
      "coordx" : 43.72495,
      "coordy" : 3.811383
    },
    "abL" : [ {
      "level" : 3,
      "skill" : "PREMIER_SECOURS"
    } ],
    "horairenec" : {
      "beg" : 1639030187.000000000,
      "end" : 1639033718.000000000
    },
    "horairevoulu" : {
      "beg" : 1639030187.000000000,
      "end" : 1639033718.000000000
    },
    "duree" : 2713
  }, {
    "id" : 28,
    "loc" : {
      "id" : 28,
      "coordx" : 43.76773,
      "coordy" : 3.6729336
    },
    "abL" : [ {
      "level" : 1,
      "skill" : "AIDE_DIAGNOSTIQUE"
    } ],
    "horairenec" : {
      "beg" : 1639014932.000000000,
      "end" : 1639017450.000000000
    },
    "horairevoulu" : {
      "beg" : 1639014932.000000000,
      "end" : 1639017450.000000000
    },
    "duree" : 2266
  }, {
    "id" : 29,
    "loc" : {
      "id" : 29,
      "coordx" : 43.846317,
      "coordy" : 3.648277
    },
    "abL" : [ {
      "level" : 1,
      "skill" : "ENCADREMENT_STAGIAIRE"
    } ],
    "horairenec" : {
      "beg" : 1639022571.000000000,
      "end" : 1639024571.000000000
    },
    "horairevoulu" : {
      "beg" : 1639022571.000000000,
      "end" : 1639024571.000000000
    },
    "duree" : 1879
  }, {
    "id" : 30,
    "loc" : {
      "id" : 30,
      "coordx" : 43.743317,
      "coordy" : 4.07448
    },
    "abL" : [ {
      "level" : 3,
      "skill" : "ORGANISATION"
    } ],
    "horairenec" : {
      "beg" : 1639018199.000000000,
      "end" : 1639020645.000000000
    },
    "horairevoulu" : {
      "beg" : 1639018199.000000000,
      "end" : 1639020645.000000000
    },
    "duree" : 2620
  }, {
    "id" : 31,
    "loc" : {
      "id" : 31,
      "coordx" : 43.636166,
      "coordy" : 3.780324
    },
    "abL" : [ {
      "level" : 5,
      "skill" : "PREMIER_SECOURS"
    } ],
    "horairenec" : {
      "beg" : 1639031640.000000000,
      "end" : 1639033528.000000000
    },
    "horairevoulu" : {
      "beg" : 1639031640.000000000,
      "end" : 1639033528.000000000
    },
    "duree" : 1949
  }, {
    "id" : 32,
    "loc" : {
      "id" : 32,
      "coordx" : 43.578568,
      "coordy" : 3.7810879
    },
    "abL" : [ {
      "level" : 2,
      "skill" : "PREMIER_SECOURS"
    } ],
    "horairenec" : {
      "beg" : 1639019061.000000000,
      "end" : 1639021409.000000000
    },
    "horairevoulu" : {
      "beg" : 1639019061.000000000,
      "end" : 1639021409.000000000
    },
    "duree" : 2847
  }, {
    "id" : 33,
    "loc" : {
      "id" : 33,
      "coordx" : 43.776108,
      "coordy" : 4.0156865
    },
    "abL" : [ {
      "level" : 4,
      "skill" : "ADMINISTRATIO_THERAPEUTIQUE"
    } ],
    "horairenec" : {
      "beg" : 1639016524.000000000,
      "end" : 1639018971.000000000
    },
    "horairevoulu" : {
      "beg" : 1639016524.000000000,
      "end" : 1639018971.000000000
    },
    "duree" : 3140
  }, {
    "id" : 34,
    "loc" : {
      "id" : 34,
      "coordx" : 43.829735,
      "coordy" : 3.89296
    },
    "abL" : [ {
      "level" : 2,
      "skill" : "AIDE_DIAGNOSTIQUE"
    } ],
    "horairenec" : {
      "beg" : 1639009565.000000000,
      "end" : 1639011395.000000000
    },
    "horairevoulu" : {
      "beg" : 1639009565.000000000,
      "end" : 1639011395.000000000
    },
    "duree" : 3523
  }, {
    "id" : 35,
    "loc" : {
      "id" : 35,
      "coordx" : 43.756332,
      "coordy" : 3.8146071
    },
    "abL" : [ {
      "level" : 2,
      "skill" : "HYGIENE"
    } ],
    "horairenec" : {
      "beg" : 1639028432.000000000,
      "end" : 1639031952.000000000
    },
    "horairevoulu" : {
      "beg" : 1639028432.000000000,
      "end" : 1639031952.000000000
    },
    "duree" : 3165
  }, {
    "id" : 36,
    "loc" : {
      "id" : 36,
      "coordx" : 43.8696,
      "coordy" : 4.0797596
    },
    "abL" : [ {
      "level" : 4,
      "skill" : "COLLABORATION"
    } ],
    "horairenec" : {
      "beg" : 1639020677.000000000,
      "end" : 1639022832.000000000
    },
    "horairevoulu" : {
      "beg" : 1639020677.000000000,
      "end" : 1639022832.000000000
    },
    "duree" : 3315
  }, {
    "id" : 37,
    "loc" : {
      "id" : 37,
      "coordx" : 43.64354,
      "coordy" : 4.0734625
    },
    "abL" : [ {
      "level" : 5,
      "skill" : "TRANSMISSION"
    } ],
    "horairenec" : {
      "beg" : 1639018319.000000000,
      "end" : 1639020996.000000000
    },
    "horairevoulu" : {
      "beg" : 1639018319.000000000,
      "end" : 1639020996.000000000
    },
    "duree" : 2268
  }, {
    "id" : 38,
    "loc" : {
      "id" : 38,
      "coordx" : 43.643066,
      "coordy" : 3.7054403
    },
    "abL" : [ {
      "level" : 2,
      "skill" : "PREVENTION"
    } ],
    "horairenec" : {
      "beg" : 1639018076.000000000,
      "end" : 1639019908.000000000
    },
    "horairevoulu" : {
      "beg" : 1639018076.000000000,
      "end" : 1639019908.000000000
    },
    "duree" : 2610
  }, {
    "id" : 39,
    "loc" : {
      "id" : 39,
      "coordx" : 43.598503,
      "coordy" : 3.5162752
    },
    "abL" : [ {
      "level" : 4,
      "skill" : "COLLABORATION"
    } ],
    "horairenec" : {
      "beg" : 1639021445.000000000,
      "end" : 1639023298.000000000
    },
    "horairevoulu" : {
      "beg" : 1639021445.000000000,
      "end" : 1639023298.000000000
    },
    "duree" : 2304
  }, {
    "id" : 40,
    "loc" : {
      "id" : 40,
      "coordx" : 43.606308,
      "coordy" : 3.9334915
    },
    "abL" : [ {
      "level" : 5,
      "skill" : "URGENCE"
    } ],
    "horairenec" : {
      "beg" : 1639033171.000000000,
      "end" : 1639035310.000000000
    },
    "horairevoulu" : {
      "beg" : 1639033171.000000000,
      "end" : 1639035310.000000000
    },
    "duree" : 3340
  }, {
    "id" : 41,
    "loc" : {
      "id" : 41,
      "coordx" : 43.82413,
      "coordy" : 3.6086674
    },
    "abL" : [ {
      "level" : 3,
      "skill" : "HYGIENE"
    } ],
    "horairenec" : {
      "beg" : 1639019374.000000000,
      "end" : 1639022629.000000000
    },
    "horairevoulu" : {
      "beg" : 1639019374.000000000,
      "end" : 1639022629.000000000
    },
    "duree" : 3276
  } ],
  "lemploye" : [ {
    "id" : 0,
    "abL" : [ {
      "level" : 2,
      "skill" : "AIDE_DIAGNOSTIQUE"
    }, {
      "level" : 5,
      "skill" : "ADMINISTRATIO_THERAPEUTIQUE"
    }, {
      "level" : 3,
      "skill" : "ADMINISTRATIO_THERAPEUTIQUE"
    }, {
      "level" : 2,
      "skill" : "PREVENTION"
    }, {
      "level" : 3,
      "skill" : "TRANSMISSION"
    }, {
      "level" : 3,
      "skill" : "ORGANISATION"
    }, {
      "level" : 1,
      "skill" : "COLLABORATION"
    }, {
      "level" : 4,
      "skill" : "URGENCE"
    } ],
    "locbeg" : {
      "id" : 0,
      "coordx" : 43.827766,
      "coordy" : 3.942272
    },
    "locend" : {
      "id" : 6,
      "coordx" : 43.57251,
      "coordy" : 3.9673686
    },
    "horaires" : [ {
      "beg" : 1639084834.871031000,
      "end" : 1639094496.871031000
    }, {
      "beg" : 1639098096.871031000,
      "end" : 1639107382.871031000
    }, {
      "beg" : 1639110982.871031000,
      "end" : 1639117234.871036000
    } ]
  }, {
    "id" : 1,
    "abL" : [ {
      "level" : 4,
      "skill" : "ORGANISATION"
    }, {
      "level" : 5,
      "skill" : "ORGANISATION"
    }, {
      "level" : 3,
      "skill" : "TRANSMISSION"
    }, {
      "level" : 3,
      "skill" : "COLLABORATION"
    }, {
      "level" : 3,
      "skill" : "TRANSMISSION"
    }, {
      "level" : 3,
      "skill" : "HYGIENE"
    }, {
      "level" : 4,
      "skill" : "COLLABORATION"
    }, {
      "level" : 3,
      "skill" : "ORGANISATION"
    } ],
    "locbeg" : {
      "id" : 1,
      "coordx" : 43.57345,
      "coordy" : 3.6527684
    },
    "locend" : {
      "id" : 7,
      "coordx" : 43.900326,
      "coordy" : 3.6972651
    },
    "horaires" : [ {
      "beg" : 1639084834.871049000,
      "end" : 1639093374.871049000
    }, {
      "beg" : 1639096974.871049000,
      "end" : 1639106932.871049000
    }, {
      "beg" : 1639110532.871049000,
      "end" : 1639117234.871054000
    } ]
  }, {
    "id" : 2,
    "abL" : [ {
      "level" : 4,
      "skill" : "AIDE_DIAGNOSTIQUE"
    }, {
      "level" : 3,
      "skill" : "HYGIENE"
    }, {
      "level" : 1,
      "skill" : "HYGIENE"
    }, {
      "level" : 4,
      "skill" : "ADMINISTRATIO_THERAPEUTIQUE"
    }, {
      "level" : 2,
      "skill" : "ORGANISATION"
    }, {
      "level" : 5,
      "skill" : "URGENCE"
    }, {
      "level" : 5,
      "skill" : "HYGIENE"
    }, {
      "level" : 1,
      "skill" : "ORGANISATION"
    } ],
    "locbeg" : {
      "id" : 2,
      "coordx" : 43.882168,
      "coordy" : 3.8038197
    },
    "locend" : {
      "id" : 8,
      "coordx" : 43.67603,
      "coordy" : 4.0614405
    },
    "horaires" : [ {
      "beg" : 1639084834.871063000,
      "end" : 1639092900.871063000
    }, {
      "beg" : 1639096500.871063000,
      "end" : 1639102873.871063000
    }, {
      "beg" : 1639106473.871063000,
      "end" : 1639117234.871067000
    } ]
  }, {
    "id" : 3,
    "abL" : [ {
      "level" : 5,
      "skill" : "AIDE_DIAGNOSTIQUE"
    }, {
      "level" : 1,
      "skill" : "HYGIENE"
    }, {
      "level" : 2,
      "skill" : "ANALYSE_DE_PRATIQUE"
    }, {
      "level" : 3,
      "skill" : "ANALYSE_DE_PRATIQUE"
    }, {
      "level" : 2,
      "skill" : "ADMINISTRATIO_THERAPEUTIQUE"
    }, {
      "level" : 2,
      "skill" : "URGENCE"
    }, {
      "level" : 2,
      "skill" : "AIDE_DIAGNOSTIQUE"
    }, {
      "level" : 1,
      "skill" : "COLLABORATION"
    } ],
    "locbeg" : {
      "id" : 3,
      "coordx" : 43.64458,
      "coordy" : 3.6212318
    },
    "locend" : {
      "id" : 9,
      "coordx" : 43.67379,
      "coordy" : 3.9563706
    },
    "horaires" : [ {
      "beg" : 1639084834.871075000,
      "end" : 1639088732.871075000
    }, {
      "beg" : 1639092332.871075000,
      "end" : 1639101421.871075000
    }, {
      "beg" : 1639105021.871075000,
      "end" : 1639117234.871079000
    } ]
  }, {
    "id" : 4,
    "abL" : [ {
      "level" : 5,
      "skill" : "AIDE_DIAGNOSTIQUE"
    }, {
      "level" : 2,
      "skill" : "ENCADREMENT_STAGIAIRE"
    }, {
      "level" : 4,
      "skill" : "ADMINISTRATIO_THERAPEUTIQUE"
    }, {
      "level" : 4,
      "skill" : "HYGIENE"
    }, {
      "level" : 5,
      "skill" : "AIDE_DIAGNOSTIQUE"
    }, {
      "level" : 1,
      "skill" : "PREMIER_SECOURS"
    }, {
      "level" : 2,
      "skill" : "PREMIER_SECOURS"
    }, {
      "level" : 2,
      "skill" : "COLLABORATION"
    } ],
    "locbeg" : {
      "id" : 4,
      "coordx" : 43.723164,
      "coordy" : 3.806613
    },
    "locend" : {
      "id" : 10,
      "coordx" : 43.78158,
      "coordy" : 3.9195397
    },
    "horaires" : [ {
      "beg" : 1639084834.871087000,
      "end" : 1639089475.871087000
    }, {
      "beg" : 1639093075.871087000,
      "end" : 1639101138.871087000
    }, {
      "beg" : 1639104738.871087000,
      "end" : 1639117234.871091000
    } ]
  }, {
    "id" : 5,
    "abL" : [ {
      "level" : 2,
      "skill" : "PREVENTION"
    }, {
      "level" : 5,
      "skill" : "ORGANISATION"
    }, {
      "level" : 2,
      "skill" : "AIDE_DIAGNOSTIQUE"
    }, {
      "level" : 4,
      "skill" : "ENCADREMENT_STAGIAIRE"
    }, {
      "level" : 5,
      "skill" : "HYGIENE"
    }, {
      "level" : 2,
      "skill" : "HYGIENE"
    }, {
      "level" : 2,
      "skill" : "PREVENTION"
    }, {
      "level" : 2,
      "skill" : "ANALYSE_DE_PRATIQUE"
    } ],
    "locbeg" : {
      "id" : 5,
      "coordx" : 43.582855,
      "coordy" : 3.9358568
    },
    "locend" : {
      "id" : 11,
      "coordx" : 43.75933,
      "coordy" : 3.562999
    },
    "horaires" : [ {
      "beg" : 1639084834.871100000,
      "end" : 1639095402.871100000
    }, {
      "beg" : 1639099002.871100000,
      "end" : 1639106600.871100000
    }, {
      "beg" : 1639110200.871100000,
      "end" : 1639117234.871103000
    } ]
  } ]
}