{
  "jobs" : [ {
    "id" : 0,
    "loc" : {
      "id" : 0,
      "coordx" : 43.90712,
      "coordy" : 3.5785892
    },
    "abL" : [ {
      "level" : 2,
      "skill" : "ORGANISATION"
    } ],
    "horairenec" : {
      "beg" : 1639017776.000000000,
      "end" : 1639021183.000000000
    },
    "horairevoulu" : {
      "beg" : 1639017776.000000000,
      "end" : 1639021183.000000000
    },
    "duree" : 1830
  }, {
    "id" : 1,
    "loc" : {
      "id" : 1,
      "coordx" : 43.67997,
      "coordy" : 3.6408145
    },
    "abL" : [ {
      "level" : 5,
      "skill" : "PREVENTION"
    } ],
    "horairenec" : {
      "beg" : 1639031470.000000000,
      "end" : 1639033555.000000000
    },
    "horairevoulu" : {
      "beg" : 1639031470.000000000,
      "end" : 1639033555.000000000
    },
    "duree" : 2427
  }, {
    "id" : 2,
    "loc" : {
      "id" : 2,
      "coordx" : 43.592552,
      "coordy" : 3.5597067
    },
    "abL" : [ {
      "level" : 5,
      "skill" : "ANALYSE_DE_PRATIQUE"
    } ],
    "horairenec" : {
      "beg" : 1639021905.000000000,
      "end" : 1639023902.000000000
    },
    "horairevoulu" : {
      "beg" : 1639021905.000000000,
      "end" : 1639023902.000000000
    },
    "duree" : 2236
  }, {
    "id" : 3,
    "loc" : {
      "id" : 3,
      "coordx" : 43.657562,
      "coordy" : 3.691284
    },
    "abL" : [ {
      "level" : 5,
      "skill" : "ORGANISATION"
    } ],
    "horairenec" : {
      "beg" : 1639023468.000000000,
      "end" : 1639025594.000000000
    },
    "horairevoulu" : {
      "beg" : 1639023468.000000000,
      "end" : 1639025594.000000000
    },
    "duree" : 2525
  }, {
    "id" : 4,
    "loc" : {
      "id" : 4,
      "coordx" : 43.705086,
      "coordy" : 3.763038
    },
    "abL" : [ {
      "level" : 5,
      "skill" : "COLLABORATION"
    } ],
    "horairenec" : {
      "beg" : 1639016747.000000000,
      "end" : 1639019649.000000000
    },
    "horairevoulu" : {
      "beg" : 1639016747.000000000,
      "end" : 1639019649.000000000
    },
    "duree" : 1991
  }, {
    "id" : 5,
    "loc" : {
      "id" : 5,
      "coordx" : 43.906624,
      "coordy" : 4.0724134
    },
    "abL" : [ {
      "level" : 4,
      "skill" : "URGENCE"
    } ],
    "horairenec" : {
      "beg" : 1639013562.000000000,
      "end" : 1639016557.000000000
    },
    "horairevoulu" : {
      "beg" : 1639013562.000000000,
      "end" : 1639016557.000000000
    },
    "duree" : 2642
  }, {
    "id" : 6,
    "loc" : {
      "id" : 6,
      "coordx" : 43.75459,
      "coordy" : 3.7998145
    },
    "abL" : [ {
      "level" : 3,
      "skill" : "AIDE_DIAGNOSTIQUE"
    } ],
    "horairenec" : {
      "beg" : 1639009238.000000000,
      "end" : 1639011902.000000000
    },
    "horairevoulu" : {
      "beg" : 1639009238.000000000,
      "end" : 1639011902.000000000
    },
    "duree" : 2926
  }, {
    "id" : 7,
    "loc" : {
      "id" : 7,
      "coordx" : 43.7442,
      "coordy" : 4.0208163
    },
    "abL" : [ {
      "level" : 5,
      "skill" : "TRANSMISSION"
    } ],
    "horairenec" : {
      "beg" : 1639020069.000000000,
      "end" : 1639022997.000000000
    },
    "horairevoulu" : {
      "beg" : 1639020069.000000000,
      "end" : 1639022997.000000000
    },
    "duree" : 2640
  }, {
    "id" : 8,
    "loc" : {
      "id" : 8,
      "coordx" : 43.827667,
      "coordy" : 3.7456174
    },
    "abL" : [ {
      "level" : 3,
      "skill" : "AIDE_DIAGNOSTIQUE"
    } ],
    "horairenec" : {
      "beg" : 1639031335.000000000,
      "end" : 1639034425.000000000
    },
    "horairevoulu" : {
      "beg" : 1639031335.000000000,
      "end" : 1639034425.000000000
    },
    "duree" : 2874
  }, {
    "id" : 9,
    "loc" : {
      "id" : 9,
      "coordx" : 43.80156,
      "coordy" : 3.8046927
    },
    "abL" : [ {
      "level" : 4,
      "skill" : "ANALYSE_DE_PRATIQUE"
    } ],
    "horairenec" : {
      "beg" : 1639024350.000000000,
      "end" : 1639026932.000000000
    },
    "horairevoulu" : {
      "beg" : 1639024350.000000000,
      "end" : 1639026932.000000000
    },
    "duree" : 2904
  }, {
    "id" : 10,
    "loc" : {
      "id" : 10,
      "coordx" : 43.715908,
      "coordy" : 4.000203
    },
    "abL" : [ {
      "level" : 1,
      "skill" : "AIDE_DIAGNOSTIQUE"
    } ],
    "horairenec" : {
      "beg" : 1639024378.000000000,
      "end" : 1639027213.000000000
    },
    "horairevoulu" : {
      "beg" : 1639024378.000000000,
      "end" : 1639027213.000000000
    },
    "duree" : 2702
  }, {
    "id" : 11,
    "loc" : {
      "id" : 11,
      "coordx" : 43.756092,
      "coordy" : 3.78879
    },
    "abL" : [ {
      "level" : 2,
      "skill" : "ADMINISTRATIO_THERAPEUTIQUE"
    } ],
    "horairenec" : {
      "beg" : 1639022064.000000000,
      "end" : 1639025078.000000000
    },
    "horairevoulu" : {
      "beg" : 1639022064.000000000,
      "end" : 1639025078.000000000
    },
    "duree" : 2519
  }, {
    "id" : 12,
    "loc" : {
      "id" : 12,
      "coordx" : 43.61129,
      "coordy" : 4.0301423
    },
    "abL" : [ {
      "level" : 4,
      "skill" : "PREMIER_SECOURS"
    } ],
    "horairenec" : {
      "beg" : 1639030877.000000000,
      "end" : 1639033879.000000000
    },
    "horairevoulu" : {
      "beg" : 1639030877.000000000,
      "end" : 1639033879.000000000
    },
    "duree" : 2607
  }, {
    "id" : 13,
    "loc" : {
      "id" : 13,
      "coordx" : 43.764297,
      "coordy" : 3.7042956
    },
    "abL" : [ {
      "level" : 4,
      "skill" : "ORGANISATION"
    } ],
    "horairenec" : {
      "beg" : 1639009093.000000000,
      "end" : 1639011690.000000000
    },
    "horairevoulu" : {
      "beg" : 1639009093.000000000,
      "end" : 1639011690.000000000
    },
    "duree" : 3079
  }, {
    "id" : 14,
    "loc" : {
      "id" : 14,
      "coordx" : 43.772556,
      "coordy" : 3.7400162
    },
    "abL" : [ {
      "level" : 3,
      "skill" : "HYGIENE"
    } ],
    "horairenec" : {
      "beg" : 1639021765.000000000,
      "end" : 1639024673.000000000
    },
    "horairevoulu" : {
      "beg" : 1639021765.000000000,
      "end" : 1639024673.000000000
    },
    "duree" : 3352
  }, {
    "id" : 15,
    "loc" : {
      "id" : 15,
      "coordx" : 43.827602,
      "coordy" : 3.8746386
    },
    "abL" : [ {
      "level" : 1,
      "skill" : "PREMIER_SECOURS"
    } ],
    "horairenec" : {
      "beg" : 1639010188.000000000,
      "end" : 1639013606.000000000
    },
    "horairevoulu" : {
      "beg" : 1639010188.000000000,
      "end" : 1639013606.000000000
    },
    "duree" : 3543
  }, {
    "id" : 16,
    "loc" : {
      "id" : 16,
      "coordx" : 43.885155,
      "coordy" : 3.6065035
    },
    "abL" : [ {
      "level" : 2,
      "skill" : "HYGIENE"
    } ],
    "horairenec" : {
      "beg" : 1639008861.000000000,
      "end" : 1639012178.000000000
    },
    "horairevoulu" : {
      "beg" : 1639008861.000000000,
      "end" : 1639012178.000000000
    },
    "duree" : 3153
  }, {
    "id" : 17,
    "loc" : {
      "id" : 17,
      "coordx" : 43.877144,
      "coordy" : 3.8634443
    },
    "abL" : [ {
      "level" : 3,
      "skill" : "PREMIER_SECOURS"
    } ],
    "horairenec" : {
      "beg" : 1639010292.000000000,
      "end" : 1639013052.000000000
    },
    "horairevoulu" : {
      "beg" : 1639010292.000000000,
      "end" : 1639013052.000000000
    },
    "duree" : 2253
  }, {
    "id" : 18,
    "loc" : {
      "id" : 18,
      "coordx" : 43.819027,
      "coordy" : 3.7625468
    },
    "abL" : [ {
      "level" : 3,
      "skill" : "PREMIER_SECOURS"
    } ],
    "horairenec" : {
      "beg" : 1639022596.000000000,
      "end" : 1639024726.000000000
    },
    "horairevoulu" : {
      "beg" : 1639022596.000000000,
      "end" : 1639024726.000000000
    },
    "duree" : 1942
  }, {
    "id" : 19,
    "loc" : {
      "id" : 19,
      "coordx" : 43.71175,
      "coordy" : 3.6118503
    },
    "abL" : [ {
      "level" : 1,
      "skill" : "HYGIENE"
    } ],
    "horairenec" : {
      "beg" : 1639024824.000000000,
      "end" : 1639027803.000000000
    },
    "horairevoulu" : {
      "beg" : 1639024824.000000000,
      "end" : 1639027803.000000000
    },
    "duree" : 3599
  }, {
    "id" : 20,
    "loc" : {
      "id" : 20,
      "coordx" : 43.617096,
      "coordy" : 3.935584
    },
    "abL" : [ {
      "level" : 2,
      "skill" : "AIDE_DIAGNOSTIQUE"
    } ],
    "horairenec" : {
      "beg" : 1639018776.000000000,
      "end" : 1639021420.000000000
    },
    "horairevoulu" : {
      "beg" : 1639018776.000000000,
      "end" : 1639021420.000000000
    },
    "duree" : 1930
  }, {
    "id" : 21,
    "loc" : {
      "id" : 21,
      "coordx" : 43.648098,
      "coordy" : 3.560195
    },
    "abL" : [ {
      "level" : 5,
      "skill" : "URGENCE"
    } ],
    "horairenec" : {
      "beg" : 1639011696.000000000,
      "end" : 1639014312.000000000
    },
    "horairevoulu" : {
      "beg" : 1639011696.000000000,
      "end" : 1639014312.000000000
    },
    "duree" : 2591
  }, {
    "id" : 22,
    "loc" : {
      "id" : 22,
      "coordx" : 43.83245,
      "coordy" : 3.6669822
    },
    "abL" : [ {
      "level" : 1,
      "skill" : "AIDE_DIAGNOSTIQUE"
    } ],
    "horairenec" : {
      "beg" : 1639031135.000000000,
      "end" : 1639034581.000000000
    },
    "horairevoulu" : {
      "beg" : 1639031135.000000000,
      "end" : 1639034581.000000000
    },
    "duree" : 1999
  }, {
    "id" : 23,
    "loc" : {
      "id" : 23,
      "coordx" : 43.854275,
      "coordy" : 3.6633432
    },
    "abL" : [ {
      "level" : 5,
      "skill" : "TRANSMISSION"
    } ],
    "horairenec" : {
      "beg" : 1639027549.000000000,
      "end" : 1639030302.000000000
    },
    "horairevoulu" : {
      "beg" : 1639027549.000000000,
      "end" : 1639030302.000000000
    },
    "duree" : 1828
  }, {
    "id" : 24,
    "loc" : {
      "id" : 24,
      "coordx" : 43.879807,
      "coordy" : 3.8312545
    },
    "abL" : [ {
      "level" : 2,
      "skill" : "HYGIENE"
    } ],
    "horairenec" : {
      "beg" : 1639025794.000000000,
      "end" : 1639029320.000000000
    },
    "horairevoulu" : {
      "beg" : 1639025794.000000000,
      "end" : 1639029320.000000000
    },
    "duree" : 2378
  }, {
    "id" : 25,
    "loc" : {
      "id" : 25,
      "coordx" : 43.67774,
      "coordy" : 3.989436
    },
    "abL" : [ {
      "level" : 1,
      "skill" : "ANALYSE_DE_PRATIQUE"
    } ],
    "horairenec" : {
      "beg" : 1639010115.000000000,
      "end" : 1639013677.000000000
    },
    "horairevoulu" : {
      "beg" : 1639010115.000000000,
      "end" : 1639013677.000000000
    },
    "duree" : 2360
  }, {
    "id" : 26,
    "loc" : {
      "id" : 26,
      "coordx" : 43.671375,
      "coordy" : 3.7535262
    },
    "abL" : [ {
      "level" : 4,
      "skill" : "AIDE_DIAGNOSTIQUE"
    } ],
    "horairenec" : {
      "beg" : 1639014187.000000000,
      "end" : 1639017406.000000000
    },
    "horairevoulu" : {
      "beg" : 1639014187.000000000,
      "end" : 1639017406.000000000
    },
    "duree" : 3289
  }, {
    "id" : 27,
    "loc" : {
      "id" : 27,
      "coordx" : 43.79468,
      "coordy" : 3.8596096
    },
    "abL" : [ {
      "level" : 4,
      "skill" : "PREVENTION"
    } ],
    "horairenec" : {
      "beg" : 1639008556.000000000,
      "end" : 1639011241.000000000
    },
    "horairevoulu" : {
      "beg" : 1639008556.000000000,
      "end" : 1639011241.000000000
    },
    "duree" : 2002
  }, {
    "id" : 28,
    "loc" : {
      "id" : 28,
      "coordx" : 43.831535,
      "coordy" : 3.8859162
    },
    "abL" : [ {
      "level" : 2,
      "skill" : "ENCADREMENT_STAGIAIRE"
    } ],
    "horairenec" : {
      "beg" : 1639029326.000000000,
      "end" : 1639032159.000000000
    },
    "horairevoulu" : {
      "beg" : 1639029326.000000000,
      "end" : 1639032159.000000000
    },
    "duree" : 2846
  }, {
    "id" : 29,
    "loc" : {
      "id" : 29,
      "coordx" : 43.653404,
      "coordy" : 3.9008155
    },
    "abL" : [ {
      "level" : 3,
      "skill" : "HYGIENE"
    } ],
    "horairenec" : {
      "beg" : 1639020723.000000000,
      "end" : 1639023665.000000000
    },
    "horairevoulu" : {
      "beg" : 1639020723.000000000,
      "end" : 1639023665.000000000
    },
    "duree" : 2187
  }, {
    "id" : 30,
    "loc" : {
      "id" : 30,
      "coordx" : 43.676857,
      "coordy" : 4.0785913
    },
    "abL" : [ {
      "level" : 3,
      "skill" : "ENCADREMENT_STAGIAIRE"
    } ],
    "horairenec" : {
      "beg" : 1639010599.000000000,
      "end" : 1639013018.000000000
    },
    "horairevoulu" : {
      "beg" : 1639010599.000000000,
      "end" : 1639013018.000000000
    },
    "duree" : 2393
  }, {
    "id" : 31,
    "loc" : {
      "id" : 31,
      "coordx" : 43.68024,
      "coordy" : 3.9638271
    },
    "abL" : [ {
      "level" : 5,
      "skill" : "AIDE_DIAGNOSTIQUE"
    } ],
    "horairenec" : {
      "beg" : 1639021436.000000000,
      "end" : 1639023915.000000000
    },
    "horairevoulu" : {
      "beg" : 1639021436.000000000,
      "end" : 1639023915.000000000
    },
    "duree" : 2313
  }, {
    "id" : 32,
    "loc" : {
      "id" : 32,
      "coordx" : 43.70902,
      "coordy" : 3.9051175
    },
    "abL" : [ {
      "level" : 4,
      "skill" : "URGENCE"
    } ],
    "horairenec" : {
      "beg" : 1639020250.000000000,
      "end" : 1639022051.000000000
    },
    "horairevoulu" : {
      "beg" : 1639020250.000000000,
      "end" : 1639022051.000000000
    },
    "duree" : 2661
  }, {
    "id" : 33,
    "loc" : {
      "id" : 33,
      "coordx" : 43.62675,
      "coordy" : 3.5907395
    },
    "abL" : [ {
      "level" : 4,
      "skill" : "ANALYSE_DE_PRATIQUE"
    } ],
    "horairenec" : {
      "beg" : 1639021640.000000000,
      "end" : 1639025221.000000000
    },
    "horairevoulu" : {
      "beg" : 1639021640.000000000,
      "end" : 1639025221.000000000
    },
    "duree" : 2769
  }, {
    "id" : 34,
    "loc" : {
      "id" : 34,
      "coordx" : 43.74003,
      "coordy" : 3.8769906
    },
    "abL" : [ {
      "level" : 2,
      "skill" : "ORGANISATION"
    } ],
    "horairenec" : {
      "beg" : 1639030187.000000000,
      "end" : 1639032170.000000000
    },
    "horairevoulu" : {
      "beg" : 1639030187.000000000,
      "end" : 1639032170.000000000
    },
    "duree" : 3083
  } ],
  "lemploye" : [ {
    "id" : 0,
    "abL" : [ {
      "level" : 4,
      "skill" : "URGENCE"
    }, {
      "level" : 4,
      "skill" : "TRANSMISSION"
    }, {
      "level" : 5,
      "skill" : "ADMINISTRATIO_THERAPEUTIQUE"
    }, {
      "level" : 5,
      "skill" : "HYGIENE"
    }, {
      "level" : 2,
      "skill" : "ENCADREMENT_STAGIAIRE"
    }, {
      "level" : 5,
      "skill" : "PREVENTION"
    }, {
      "level" : 1,
      "skill" : "ADMINISTRATIO_THERAPEUTIQUE"
    }, {
      "level" : 1,
      "skill" : "ENCADREMENT_STAGIAIRE"
    } ],
    "locbeg" : {
      "id" : 0,
      "coordx" : 43.637295,
      "coordy" : 3.7969737
    },
    "locend" : {
      "id" : 5,
      "coordx" : 43.6318,
      "coordy" : 3.6693335
    },
    "horaires" : [ {
      "beg" : 1639084834.862256000,
      "end" : 1639091341.862256000
    }, {
      "beg" : 1639094941.862256000,
      "end" : 1639103926.862256000
    }, {
      "beg" : 1639107526.862256000,
      "end" : 1639117234.862262000
    } ]
  }, {
    "id" : 1,
    "abL" : [ {
      "level" : 2,
      "skill" : "ENCADREMENT_STAGIAIRE"
    }, {
      "level" : 5,
      "skill" : "PREVENTION"
    }, {
      "level" : 2,
      "skill" : "URGENCE"
    }, {
      "level" : 1,
      "skill" : "ANALYSE_DE_PRATIQUE"
    }, {
      "level" : 5,
      "skill" : "ENCADREMENT_STAGIAIRE"
    }, {
      "level" : 2,
      "skill" : "ENCADREMENT_STAGIAIRE"
    }, {
      "level" : 5,
      "skill" : "ENCADREMENT_STAGIAIRE"
    }, {
      "level" : 3,
      "skill" : "TRANSMISSION"
    } ],
    "locbeg" : {
      "id" : 1,
      "coordx" : 43.605064,
      "coordy" : 4.0557237
    },
    "locend" : {
      "id" : 6,
      "coordx" : 43.905937,
      "coordy" : 3.7571352
    },
    "horaires" : [ {
      "beg" : 1639084834.862277000,
      "end" : 1639093612.862277000
    }, {
      "beg" : 1639097212.862277000,
      "end" : 1639102066.862277000
    }, {
      "beg" : 1639105666.862277000,
      "end" : 1639117234.862284000
    } ]
  }, {
    "id" : 2,
    "abL" : [ {
      "level" : 1,
      "skill" : "HYGIENE"
    }, {
      "level" : 2,
      "skill" : "ANALYSE_DE_PRATIQUE"
    }, {
      "level" : 3,
      "skill" : "ORGANISATION"
    }, {
      "level" : 5,
      "skill" : "TRANSMISSION"
    }, {
      "level" : 3,
      "skill" : "ENCADREMENT_STAGIAIRE"
    }, {
      "level" : 5,
      "skill" : "HYGIENE"
    }, {
      "level" : 2,
      "skill" : "ANALYSE_DE_PRATIQUE"
    }, {
      "level" : 5,
      "skill" : "PREMIER_SECOURS"
    } ],
    "locbeg" : {
      "id" : 2,
      "coordx" : 43.676857,
      "coordy" : 3.7387385
    },
    "locend" : {
      "id" : 7,
      "coordx" : 43.60199,
      "coordy" : 4.0683565
    },
    "horaires" : [ {
      "beg" : 1639084834.862296000,
      "end" : 1639088868.862296000
    }, {
      "beg" : 1639092468.862296000,
      "end" : 1639100148.862296000
    }, {
      "beg" : 1639103748.862296000,
      "end" : 1639117234.862302000
    } ]
  }, {
    "id" : 3,
    "abL" : [ {
      "level" : 4,
      "skill" : "ADMINISTRATIO_THERAPEUTIQUE"
    }, {
      "level" : 3,
      "skill" : "TRANSMISSION"
    }, {
      "level" : 2,
      "skill" : "COLLABORATION"
    }, {
      "level" : 1,
      "skill" : "ANALYSE_DE_PRATIQUE"
    }, {
      "level" : 5,
      "skill" : "ANALYSE_DE_PRATIQUE"
    }, {
      "level" : 1,
      "skill" : "TRANSMISSION"
    }, {
      "level" : 4,
      "skill" : "TRANSMISSION"
    }, {
      "level" : 2,
      "skill" : "TRANSMISSION"
    } ],
    "locbeg" : {
      "id" : 3,
      "coordx" : 43.838215,
      "coordy" : 4.0760517
    },
    "locend" : {
      "id" : 8,
      "coordx" : 43.650604,
      "coordy" : 3.8783152
    },
    "horaires" : [ {
      "beg" : 1639084834.862315000,
      "end" : 1639093314.862315000
    }, {
      "beg" : 1639096914.862315000,
      "end" : 1639100665.862315000
    }, {
      "beg" : 1639104265.862315000,
      "end" : 1639117234.862322000
    } ]
  }, {
    "id" : 4,
    "abL" : [ {
      "level" : 1,
      "skill" : "HYGIENE"
    }, {
      "level" : 2,
      "skill" : "TRANSMISSION"
    }, {
      "level" : 4,
      "skill" : "HYGIENE"
    }, {
      "level" : 1,
      "skill" : "ORGANISATION"
    }, {
      "level" : 5,
      "skill" : "AIDE_DIAGNOSTIQUE"
    }, {
      "level" : 4,
      "skill" : "URGENCE"
    }, {
      "level" : 2,
      "skill" : "ADMINISTRATIO_THERAPEUTIQUE"
    }, {
      "level" : 1,
      "skill" : "ANALYSE_DE_PRATIQUE"
    } ],
    "locbeg" : {
      "id" : 4,
      "coordx" : 43.91066,
      "coordy" : 3.8216267
    },
    "locend" : {
      "id" : 9,
      "coordx" : 43.861492,
      "coordy" : 3.7779717
    },
    "horaires" : [ {
      "beg" : 1639084834.862334000,
      "end" : 1639091778.862334000
    }, {
      "beg" : 1639095378.862334000,
      "end" : 1639103731.862334000
    }, {
      "beg" : 1639107331.862334000,
      "end" : 1639117234.862341000
    } ]
  } ]
}