{
  "employe" : {
    "id" : 0,
    "abL" : [ {
      "level" : 3,
      "skill" : "Administration_Therapeutique"
    }, {
      "level" : 5,
      "skill" : "Encadrement_stagiaire"
    }, {
      "level" : 1,
      "skill" : "Prevention"
    }, {
      "level" : 2,
      "skill" : "Premier_Secours"
    }, {
      "level" : 1,
      "skill" : "Transmission"
    } ],
    "locbeg" : {
      "id" : 0,
      "coordx" : 43.844162,
      "coordy" : 4.0584455
    },
    "locend" : {
      "id" : 1,
      "coordx" : 43.82475,
      "coordy" : 3.5521252
    },
    "horaires" : [ {
      "beg" : 1634756925.108256700,
      "end" : 1634789325.108256700
    } ]
  },
  "affectation" : [ {
    "horaire" : {
      "beg" : 1634756925.108256700,
      "end" : 1634760525.108256700
    },
    "travail" : {
      "id" : 0,
      "loc" : {
        "id" : 0,
        "coordx" : 43.668606,
        "coordy" : 3.9971642
      },
      "abL" : [ {
        "level" : 3,
        "skill" : "Aide_diagnostique"
      } ],
      "horairenec" : {
        "beg" : 1634692296.000000000,
        "end" : 1634695352.000000000
      },
      "horairevoulu" : {
        "beg" : 1634692296.000000000,
        "end" : 1634695352.000000000
      },
      "duree" : {
        "beg" : 1634692296.000000000,
        "end" : 1634695352.000000000
      }
    }
  } ],
  "timeTravel" : [ {
    "beg" : 1634756925.108256700,
    "end" : 1634760525.108256700
  } ]
}